[31mIdentifier "right" was multiply defined at 16:6[39m
[32mNote: using earlier definition.[39m
Types not matching: expected Int but found Bool [32mboolConst[39m on line: 2:9
[31mIdentifier "y" was multiply defined at 4:5[39m
[32mNote: using earlier definition.[39m
[31mUsage of undeclared id: "z" at 12:7[39m
[31mIdentifier "z" was multiply defined at 14:7[39m
[32mNote: using earlier definition.[39m
[31mUsage of undeclared id: "c" at 16:6[39m
[31mIdentifier "dup" was multiply defined at 23:6[39m
[32mNote: using earlier definition.[39m
